{
    "offer":  [
                  {
                      "OfferId":  435234,
                      "CustomerId":  37158942,
                      "PlaceId":  "9385377574828",
                      "PlaceName":  "Starbucks",
                      "PlaceAddress":  "2/525 George Street, Sydney",
                      "GeneratedTime":  "2018-01-17T07:50:14",
                      "ExpirationTime":  "2018-01-17T08:50:14",
                      "State":  "created"
                  },
                  {
                      "OfferId":  435235,
                      "CustomerId":  29025641,
                      "PlaceId":  "6352546548366",
                      "PlaceName":  "Starbucks",
                      "PlaceAddress":  "1/11-17 York Street, Sydney",
                      "GeneratedTime":  "2018-01-16T15:55:14",
                      "ExpirationTime":  "2018-01-16T16:55:14",
                      "State":  "extended"
                  },
                  {
                      "OfferId":  435236,
                      "CustomerId":  24010376,
                      "PlaceId":  "9385377574828",
                      "PlaceName":  "Starbucks",
                      "PlaceAddress":  "2/525 George Street, Sydney",
                      "GeneratedTime":  "2018-01-16T17:15:14",
                      "ExpirationTime":  "2018-01-16T18:15:14",
                      "State":  "extended"
                  },
                  {
                      "OfferId":  435237,
                      "CustomerId":  44582455,
                      "PlaceId":  "9257254737447",
                      "PlaceName":  "Starbucks",
                      "PlaceAddress":  "Pacific Power Building, 201 Elizabeth Street, Sydney",
                      "GeneratedTime":  "2018-01-14T04:04:14",
                      "ExpirationTime":  "2018-01-14T05:04:14",
                      "State":  "activated"
                  },
                  {
                      "OfferId":  435238,
                      "CustomerId":  39761107,
                      "PlaceId":  "8573585693943",
                      "PlaceName":  "Starbucks",
                      "PlaceAddress":  "Bondi Junction",
                      "GeneratedTime":  "2018-01-16T22:50:14",
                      "ExpirationTime":  "2018-01-16T23:50:14",
                      "State":  "extended"
                  },
                  {
                      "OfferId":  435239,
                      "CustomerId":  64313188,
                      "PlaceId":  "8573585693943",
                      "PlaceName":  "Starbucks",
                      "PlaceAddress":  "Bondi Junction",
                      "GeneratedTime":  "2018-01-14T15:41:14",
                      "ExpirationTime":  "2018-01-14T16:41:14",
                      "State":  "created"
                  },
                  {
                      "OfferId":  435240,
                      "CustomerId":  51042101,
                      "PlaceId":  "9385377574828",
                      "PlaceName":  "Starbucks",
                      "PlaceAddress":  "2/525 George Street, Sydney",
                      "GeneratedTime":  "2018-01-15T15:29:14",
                      "ExpirationTime":  "2018-01-15T16:29:14",
                      "State":  "extended"
                  }
              ]
}
